// Jest Snapshot v1, https://goo.gl/fbAQLP

exports[`<Button /> component should render a html button with label 1`] = `
.c0 {
  border: 0px;
  font-size: 1rem;
  line-height: 1.34;
  font-weight: 700;
  border-radius: 3px;
  white-space: nowrap;
  cursor: pointer;
  max-width: 20vw;
  padding: 0px 15px;
  height: 32px;
  color: #ffffff;
  background-color: #0079d6;
}

<div>
  <button
    class="c0"
  >
    My Label
  </button>
</div>
`;
