// Jest Snapshot v1, https://goo.gl/fbAQLP

exports[`<Card /> component should render the card structure 1`] = `
.c0 {
  border-radius: 6px;
  border: 1px solid #d8dee4;
  box-shadow: rgba(140, 149, 159, 0.15) 0px 3px 6px;
  flex-direction: column;
  flex-shrink: 0;
  padding: 8px;
  display: flex;
  gap: 0.4rem;
  background-color: #ffffff;
}

.c0 form {
  gap: 0.4rem;
  flex-direction: column;
  display: flex;
}

.c1 {
  font-weight: 700;
  border-bottom: 1px solid #ccc;
  display: flex;
  justify-content: space-between;
}

.c2 {
  height: 40px;
  display: flex;
  justify-content: space-between;
}

<div>
  <div
    class="c0"
  >
    <div
      class="c1"
    >
      Card title
    </div>
    <div>
      Content
    </div>
    <div
      class="c2"
    >
      Footer
    </div>
  </div>
</div>
`;
